DATE,DGS1MO_pred,DGS5_pred,DGS30_pred,DGS1MO,DGS3MO,DGS1,DGS2,DGS5,DGS7,DGS10,DGS30,GOV_PCT,HOM_PCT,FOR_PCT,BAA10Y
2010-01-06,0.02,2.55,4.71,0.03,0.06,0.4,1.01,2.6,3.33,3.85,4.7,0.060799148336706695,0.6493518460598868,0.30359842303248785,2.49
2010-01-13,0.02,2.38,4.5,0.02,0.06,0.37,0.97,2.55,3.28,3.8,4.71,0.06079977465182164,0.6493518460598868,0.30359842303248785,2.5
2010-01-21,0.01,2.41,4.57,0.02,0.06,0.31,0.87,2.38,3.09,3.62,4.5,0.06080040096693659,0.6493518460598868,0.30359842303248785,2.51
2010-01-28,0.04,2.29,4.53,0.01,0.08,0.31,0.87,2.41,3.15,3.68,4.57,0.06080102728205154,0.6493518460598868,0.30359842303248785,2.57
2010-02-04,0.05,2.39,4.69,0.04,0.09,0.32,0.8,2.29,3.06,3.62,4.53,0.0608006358351047,0.6493518460598868,0.30359842303248785,2.62
2010-02-11,0.06,2.48,4.71,0.05,0.11,0.38,0.91,2.39,3.15,3.73,4.69,0.060798913468538586,0.6493518460598868,0.30359842303248785,2.7
2010-02-19,0.09,2.3,4.55,0.06,0.11,0.39,0.95,2.48,3.24,3.78,4.71,0.06079726939136185,0.6493518460598868,0.30359842303248785,2.65
2010-02-26,0.11,2.35,4.64,0.09,0.13,0.32,0.81,2.3,3.05,3.61,4.55,0.06079554702479574,0.6493518460598868,0.30359842303248785,2.62
2010-03-05,0.1,2.42,4.62,0.11,0.15,0.38,0.91,2.35,3.1,3.69,4.64,0.06079586018235321,0.6493518460598868,0.30359842303248785,2.61
2010-03-12,0.13,2.48,4.58,0.1,0.15,0.41,0.97,2.42,3.15,3.71,4.62,0.06079883517914922,0.6493518460598868,0.30359842303248785,2.55
2010-03-19,0.11,2.59,4.75,0.13,0.16,0.42,1.02,2.48,3.16,3.7,4.58,0.06080181017594523,0.6493518460598868,0.30359842303248785,2.49
2010-03-26,0.15,2.67,4.81,0.11,0.14,0.43,1.04,2.59,3.31,3.86,4.75,0.06080478517274123,0.6493518460598868,0.30359842303248785,2.49
2010-04-02,0.16,2.65,4.74,0.15,0.16,0.46,1.11,2.67,3.4,3.96,4.81,0.058833300812495756,0.6543975242148945,0.30829148042932353,2.44
2010-04-09,0.15,2.49,4.67,0.16,0.16,0.46,1.08,2.65,3.34,3.9,4.74,0.058833528054373224,0.6543975242148945,0.30829148042932353,2.43
2010-04-16,0.14,2.61,4.67,0.15,0.16,0.41,0.98,2.49,3.2,3.79,4.67,0.05883375529625069,0.6543975242148945,0.30829148042932353,2.43
2010-04-23,0.14,2.43,4.53,0.14,0.16,0.46,1.1,2.61,3.3,3.84,4.67,0.05883398253812816,0.6543975242148945,0.30829148042932353,2.37
2010-04-30,0.08,2.17,4.28,0.14,0.16,0.41,0.97,2.43,3.12,3.69,4.53,0.05883420978000562,0.6543975242148945,0.30829148042932353,2.38
2010-05-07,0.15,2.16,4.32,0.08,0.13,0.38,0.83,2.17,2.87,3.45,4.28,0.05883663369336527,0.6543975242148945,0.30829148042932353,2.55
2010-05-14,0.17,2.02,4.07,0.15,0.16,0.34,0.79,2.16,2.87,3.44,4.32,0.058839890826942284,0.6543975242148945,0.30829148042932353,2.59
2010-05-21,0.15,2.1,4.22,0.17,0.17,0.35,0.76,2.02,2.67,3.2,4.07,0.05884307221322681,0.6543975242148945,0.30829148042932353,2.76
2010-05-28,0.1,1.95,4.11,0.15,0.16,0.34,0.76,2.1,2.75,3.31,4.22,0.058846329346803825,0.6543975242148945,0.30829148042932353,2.89
2010-06-07,0.02,2.07,4.2,0.1,0.12,0.35,0.74,1.95,2.62,3.17,4.11,0.058849056249333426,0.6543975242148945,0.30829148042932353,3.0
2010-06-14,0.05,2.05,4.17,0.02,0.07,0.31,0.77,2.07,2.73,3.28,4.2,0.05885049544789071,0.6543975242148945,0.30829148042932353,3.06
2010-06-21,0.07,1.83,4.01,0.05,0.12,0.29,0.74,2.05,2.72,3.26,4.17,0.058851934646447994,0.6543975242148945,0.30829148042932353,3.02
2010-06-28,0.17,1.76,3.89,0.07,0.17,0.3,0.62,1.83,2.49,3.05,4.01,0.05885337384500528,0.6543975242148945,0.30829148042932353,3.1
2010-07-06,0.16,1.9,4.1,0.17,0.17,0.32,0.62,1.76,2.4,2.95,3.89,0.05729322053070053,0.6656733980640369,0.31885566490497963,3.05
2010-07-13,0.16,1.71,3.99,0.16,0.15,0.3,0.67,1.9,2.57,3.15,4.1,0.057293810430640225,0.6656733980640369,0.31885566490497963,3.03
2010-07-20,0.16,1.82,4.08,0.16,0.16,0.27,0.61,1.71,2.39,2.98,3.99,0.05729440033057993,0.6656733980640369,0.31885566490497963,2.99
2010-07-27,0.15,1.55,4.04,0.16,0.15,0.3,0.65,1.82,2.51,3.08,4.08,0.05729499023051962,0.6656733980640369,0.31885566490497963,2.9
2010-08-03,0.15,1.46,4.0,0.15,0.16,0.27,0.53,1.55,2.27,2.94,4.04,0.05729558013045932,0.6656733980640369,0.31885566490497963,2.92
2010-08-10,0.16,1.44,3.77,0.15,0.15,0.25,0.52,1.46,2.14,2.79,4.0,0.0572954326554744,0.6656733980640369,0.31885566490497963,3.05
2010-08-17,0.17,1.36,3.57,0.16,0.17,0.26,0.52,1.44,2.06,2.64,3.77,0.05729469528054978,0.6656733980640369,0.31885566490497963,2.99
2010-08-24,0.16,1.33,3.52,0.17,0.16,0.27,0.5,1.36,1.95,2.5,3.57,0.05748198851140372,0.6656733980640369,0.31885566490497963,2.95
2010-08-31,0.1,1.46,3.72,0.16,0.14,0.25,0.47,1.33,1.92,2.47,3.52,0.057846915361599076,0.6656733980640369,0.31885566490497963,3.01
2010-09-08,0.11,1.46,3.87,0.1,0.14,0.24,0.52,1.46,2.09,2.66,3.72,0.058244802870925025,0.6656733980640369,0.31885566490497963,2.95
2010-09-15,0.12,1.33,3.74,0.11,0.15,0.26,0.5,1.46,2.13,2.74,3.87,0.05859520343510533,0.6656733980640369,0.31885566490497963,3.0
2010-09-22,0.12,1.28,3.69,0.12,0.16,0.25,0.44,1.33,1.96,2.56,3.74,0.05936657134375224,0.6656733980640369,0.31885566490497963,3.05
2010-09-29,0.14,1.16,3.67,0.12,0.16,0.27,0.44,1.28,1.91,2.52,3.69,0.059850436769289105,0.6656733980640369,0.31885566490497963,3.06
2010-10-06,0.15,1.18,3.91,0.14,0.13,0.24,0.38,1.16,1.77,2.41,3.67,0.05839996035711396,0.6698942583054877,0.31625896644008666,3.13
2010-10-14,0.13,1.15,3.95,0.15,0.14,0.22,0.38,1.18,1.83,2.52,3.91,0.058548549879627515,0.6698942583054877,0.31625896644008666,3.23
2010-10-21,0.14,1.23,4.05,0.13,0.13,0.22,0.37,1.15,1.85,2.57,3.95,0.05933035607653787,0.6698942583054877,0.31625896644008666,3.2
2010-10-28,0.13,1.04,4.04,0.14,0.13,0.23,0.37,1.23,1.97,2.69,4.05,0.059738692062831125,0.6698942583054877,0.31625896644008666,3.16
2010-11-04,0.11,1.35,4.26,0.13,0.13,0.21,0.33,1.04,1.73,2.53,4.04,0.060035300706620186,0.6698942583054877,0.31625896644008666,3.24
2010-11-12,0.12,1.54,4.25,0.11,0.13,0.27,0.51,1.35,1.98,2.76,4.26,0.06082195531405401,0.6698942583054877,0.31625896644008666,3.24
2010-11-19,0.16,1.51,4.16,0.12,0.14,0.27,0.52,1.54,2.2,2.88,4.25,0.06228909859848851,0.6698942583054877,0.31625896644008666,3.11
2010-11-29,0.14,1.53,4.25,0.16,0.18,0.28,0.52,1.51,2.19,2.84,4.16,0.06425840887287645,0.6698942583054877,0.31625896644008666,3.04
2010-12-06,0.1,1.91,4.39,0.14,0.15,0.26,0.42,1.53,2.26,2.95,4.25,0.06541439828195147,0.6698942583054877,0.31625896644008666,3.02
2010-12-13,0.04,1.99,4.44,0.1,0.15,0.29,0.61,1.91,2.64,3.29,4.39,0.0677074825590909,0.6698942583054877,0.31625896644008666,2.8
2010-12-20,0.08,2.18,4.53,0.04,0.14,0.3,0.62,1.99,2.72,3.36,4.44,0.06898667863558598,0.6698942583054877,0.31625896644008666,2.75
2010-12-28,0.11,2.02,4.39,0.08,0.15,0.31,0.75,2.18,2.89,3.5,4.53,0.07181615397696221,0.6698942583054877,0.31625896644008666,2.68
2011-01-03,0.14,1.93,4.47,0.11,0.15,0.29,0.61,2.02,2.74,3.36,4.39,0.07120489717180956,0.6766990789281712,0.3140409389861917,2.68
2011-01-10,0.15,1.97,4.56,0.14,0.15,0.29,0.59,1.93,2.65,3.32,4.47,0.07224784609289035,0.6766990789281712,0.3140409389861917,2.75
2011-01-18,0.15,1.96,4.48,0.15,0.16,0.26,0.6,1.97,2.7,3.39,4.56,0.07442554418275846,0.6766990789281712,0.3140409389861917,2.72
2011-01-25,0.16,2.02,4.62,0.15,0.16,0.27,0.62,1.96,2.68,3.35,4.48,0.0756530746706018,0.6766990789281712,0.3140409389861917,2.66
2011-02-01,0.14,2.39,4.76,0.16,0.15,0.27,0.61,2.02,2.79,3.48,4.62,0.07809664309619391,0.6766990789281712,0.3140409389861917,2.66
2011-02-08,0.11,2.35,4.66,0.14,0.15,0.31,0.86,2.39,3.12,3.75,4.76,0.07975871811535633,0.6766990789281712,0.3140409389861917,2.5
2011-02-15,0.12,2.21,4.59,0.11,0.13,0.3,0.84,2.35,3.03,3.61,4.66,0.08178540129392099,0.6766990789281712,0.3140409389861917,2.53
2011-02-23,0.12,2.16,4.54,0.12,0.12,0.27,0.74,2.21,2.89,3.49,4.59,0.0850326073078323,0.6766990789281712,0.3140409389861917,2.6
2011-03-02,0.07,2.16,4.6,0.12,0.13,0.26,0.69,2.16,2.86,3.46,4.54,0.08663266460239911,0.6766990789281712,0.3140409389861917,2.6
2011-03-09,0.06,1.87,4.38,0.07,0.1,0.26,0.7,2.16,2.86,3.48,4.6,0.08872171588818421,0.6766990789281712,0.3140409389861917,2.61
2011-03-16,0.06,2.07,4.44,0.06,0.1,0.21,0.58,1.87,2.56,3.22,4.38,0.08972500149613381,0.6766990789281712,0.3140409389861917,2.71
2011-03-23,0.03,2.21,4.52,0.06,0.09,0.24,0.69,2.07,2.75,3.36,4.44,0.09146661337113354,0.6766990789281712,0.3140409389861917,2.63
2011-03-30,0.03,2.32,4.58,0.03,0.1,0.3,0.8,2.21,2.87,3.47,4.52,0.09344319183434695,0.6766990789281712,0.3140409389861917,2.59
2011-04-06,0.03,2.19,4.55,0.03,0.06,0.29,0.85,2.32,2.98,3.56,4.58,0.09469418961204097,0.6795523864562768,0.3270286236149861,2.55
2011-04-13,0.04,2.15,4.47,0.03,0.06,0.23,0.75,2.19,2.86,3.49,4.55,0.09584373294256669,0.6795523864562768,0.3270286236149861,2.58
2011-04-20,0.02,2.0,4.42,0.04,0.06,0.24,0.69,2.15,2.81,3.43,4.47,0.09778187917287262,0.6795523864562768,0.3270286236149861,2.55
2011-04-28,0.01,1.88,4.26,0.02,0.04,0.23,0.62,2.0,2.69,3.34,4.42,0.09854691671325705,0.6795523864562768,0.3270286236149861,2.59
2011-05-05,0.01,1.89,4.37,0.01,0.02,0.2,0.58,1.88,2.54,3.18,4.26,0.10052612802251008,0.6795523864562768,0.3270286236149861,2.59
2011-05-12,0.02,1.85,4.3,0.01,0.02,0.18,0.57,1.89,2.56,3.22,4.37,0.10222408885897437,0.6795523864562768,0.3270286236149861,2.64
2011-05-19,0.04,1.72,4.23,0.02,0.05,0.19,0.55,1.85,2.53,3.17,4.3,0.10424297084721022,0.6795523864562768,0.3270286236149861,2.61
2011-05-26,0.04,1.6,4.22,0.04,0.05,0.18,0.48,1.72,2.4,3.07,4.23,0.10592747572401952,0.6795523864562768,0.3270286236149861,2.64
2011-06-03,0.02,1.58,4.18,0.04,0.04,0.18,0.42,1.6,2.28,2.99,4.22,0.10682749118094313,0.6795523864562768,0.3270286236149861,2.73
2011-06-10,0.02,1.53,4.19,0.02,0.05,0.19,0.41,1.58,2.28,2.99,4.18,0.10839089242085752,0.6795523864562768,0.3270286236149861,2.71
2011-06-17,0.01,1.4,4.17,0.02,0.04,0.17,0.38,1.53,2.23,2.94,4.19,0.10987446426281873,0.6795523864562768,0.3270286236149861,2.79
2011-06-24,0.01,1.8,4.4,0.01,0.02,0.16,0.35,1.4,2.13,2.88,4.17,0.1116888574962977,0.6795523864562768,0.3270286236149861,2.83
2011-07-01,0.02,1.49,4.2,0.01,0.02,0.2,0.5,1.8,2.54,3.22,4.4,0.10933217221510796,0.6850443600349958,0.3321154212817285,2.69
2011-07-11,0.01,1.45,4.29,0.02,0.03,0.17,0.37,1.49,2.22,2.94,4.2,0.10983621742299365,0.6850443600349958,0.3321154212817285,2.76
2011-07-18,0.05,1.55,4.31,0.01,0.02,0.15,0.37,1.45,2.18,2.94,4.29,0.11023505882893835,0.6850443600349958,0.3321154212817285,2.84
2011-07-25,0.13,1.32,4.07,0.05,0.05,0.2,0.42,1.55,2.29,3.03,4.31,0.11048380226553277,0.6850443600349958,0.3321154212817285,2.77
2011-08-01,0.02,1.11,3.68,0.13,0.1,0.22,0.38,1.32,2.05,2.77,4.07,0.11075884665261244,0.6850443600349958,0.3321154212817285,2.77
2011-08-08,0.0,0.99,3.75,0.02,0.05,0.12,0.27,1.11,1.75,2.4,3.68,0.11094531971543589,0.6850443600349958,0.3321154212817285,2.88
2011-08-15,0.01,0.94,3.42,0.0,0.02,0.12,0.19,0.99,1.6,2.29,3.75,0.11120386684822661,0.6850443600349958,0.3321154212817285,3.15
2011-08-22,0.0,0.99,3.63,0.01,0.01,0.09,0.22,0.94,1.47,2.1,3.42,0.11139926465517358,0.6850443600349958,0.3321154212817285,3.13
2011-08-29,0.02,0.88,3.26,0.0,0.02,0.09,0.2,0.99,1.6,2.28,3.63,0.11145348923689381,0.6850443600349958,0.3321154212817285,3.25
2011-09-06,0.0,0.89,3.32,0.02,0.02,0.13,0.21,0.88,1.4,1.98,3.26,0.11170216506179033,0.6850443600349958,0.3321154212817285,3.21
2011-09-13,0.0,0.85,3.2,0.0,0.01,0.1,0.21,0.89,1.42,2.0,3.32,0.11193785944068899,0.6850443600349958,0.3321154212817285,3.32
2011-09-20,0.0,0.97,3.08,0.0,0.01,0.09,0.18,0.85,1.39,1.95,3.2,0.11216510235734946,0.6850443600349958,0.3321154212817285,3.35
2011-09-27,0.01,0.87,2.76,0.0,0.01,0.1,0.25,0.97,1.49,2.0,3.08,0.11244535284516786,0.6850443600349958,0.3321154212817285,3.39
2011-10-03,0.01,1.14,3.11,0.01,0.02,0.12,0.24,0.87,1.33,1.8,2.76,0.10935174151642192,0.6866284042372892,0.32890492900845697,3.31
2011-10-11,0.02,1.07,3.17,0.01,0.02,0.12,0.32,1.14,1.68,2.18,3.11,0.10982004790139092,0.6866284042372892,0.32890492900845697,3.32
2011-10-18,0.01,1.01,3.13,0.02,0.04,0.12,0.28,1.07,1.64,2.19,3.17,0.10962179447596851,0.6866284042372892,0.32890492900845697,3.23
2011-10-25,0.01,0.9,2.99,0.01,0.01,0.11,0.26,1.01,1.6,2.14,3.13,0.10971967307235002,0.6866284042372892,0.32890492900845697,3.14
2011-11-01,0.01,0.92,3.13,0.01,0.01,0.13,0.23,0.9,1.45,2.01,2.99,0.11022916729619903,0.6866284042372892,0.32890492900845697,3.03
2011-11-08,0.01,0.9,3.05,0.01,0.01,0.1,0.25,0.92,1.5,2.1,3.13,0.10866462063175707,0.6866284042372892,0.32890492900845697,3.05
2011-11-16,0.02,0.88,2.82,0.01,0.01,0.11,0.26,0.9,1.44,2.01,3.05,0.11008622513128213,0.6866284042372892,0.32890492900845697,3.17
2011-11-23,0.02,0.97,3.12,0.02,0.02,0.12,0.26,0.88,1.38,1.89,2.82,0.1093609381630618,0.6866284042372892,0.32890492900845697,3.15
2011-12-01,0.0,0.86,3.0,0.02,0.01,0.12,0.27,0.97,1.55,2.11,3.12,0.10983673324600898,0.6866284042372892,0.32890492900845697,3.3
2011-12-08,0.0,0.86,2.92,0.0,0.01,0.1,0.22,0.86,1.41,1.99,3.0,0.11003354148410228,0.6866284042372892,0.32890492900845697,3.26
2011-12-15,0.0,0.91,2.99,0.0,0.0,0.12,0.26,0.86,1.38,1.92,2.92,0.10993113025473397,0.6866284042372892,0.32890492900845697,3.27
2011-12-22,0.01,0.83,2.89,0.0,0.01,0.12,0.28,0.91,1.43,1.97,2.99,0.11063887790400541,0.6866284042372892,0.32890492900845697,3.29
2011-12-30,0.02,0.86,3.02,0.01,0.02,0.12,0.25,0.83,1.35,1.89,2.89,0.10984028052399865,0.6866284042372892,0.32890492900845697,3.27
2012-01-06,0.02,0.8,2.91,0.02,0.02,0.12,0.25,0.86,1.4,1.98,3.02,0.10658610716368636,0.6969135588092104,0.32967635701954784,3.27
2012-01-13,0.03,0.93,3.15,0.02,0.03,0.1,0.24,0.8,1.32,1.89,2.91,0.10577907256442469,0.6969135588092104,0.32967635701954784,3.24
2012-01-23,0.05,0.73,2.99,0.03,0.04,0.12,0.26,0.93,1.51,2.09,3.15,0.10582155481446918,0.6969135588092104,0.32967635701954784,3.24
2012-01-30,0.04,0.76,3.08,0.05,0.05,0.12,0.22,0.73,1.27,1.87,2.99,0.10646378647690663,0.6969135588092104,0.32967635701954784,3.25
2012-02-06,0.06,0.85,3.14,0.04,0.08,0.14,0.24,0.76,1.32,1.93,3.08,0.1065233769633944,0.6969135588092104,0.32967635701954784,3.22
2012-02-13,0.03,0.92,3.2,0.06,0.11,0.15,0.29,0.85,1.4,1.99,3.14,0.10641015503906764,0.6969135588092104,0.32967635701954784,3.19
2012-02-21,0.1,0.84,3.07,0.03,0.08,0.17,0.31,0.92,1.47,2.05,3.2,0.10681889451574016,0.6969135588092104,0.32967635701954784,3.15
2012-02-28,0.06,0.83,3.08,0.1,0.1,0.18,0.3,0.84,1.36,1.94,3.07,0.10614673945847498,0.6969135588092104,0.32967635701954784,3.12
2012-03-06,0.06,0.99,3.26,0.06,0.08,0.17,0.3,0.83,1.35,1.96,3.08,0.10646839993392504,0.6969135588092104,0.32967635701954784,3.1
2012-03-13,0.08,1.22,3.46,0.06,0.08,0.2,0.35,0.99,1.52,2.14,3.26,0.10631961594508141,0.6969135588092104,0.32967635701954784,3.08
2012-03-20,0.07,1.04,3.29,0.08,0.1,0.22,0.41,1.22,1.78,2.38,3.46,0.10635094900733143,0.6969135588092104,0.32967635701954784,3.02
2012-03-27,0.05,1.03,3.35,0.07,0.09,0.18,0.33,1.04,1.59,2.2,3.29,0.10658905465011478,0.6969135588092104,0.32967635701954784,3.04
2012-04-02,0.07,0.9,3.18,0.05,0.08,0.18,0.33,1.03,1.6,2.22,3.35,0.10500833268317192,0.6968269452792826,0.3349661057240043,3.08
2012-04-09,0.07,0.85,3.12,0.07,0.09,0.19,0.32,0.9,1.42,2.06,3.18,0.10528963130139653,0.6968269452792826,0.3349661057240043,3.11
2012-04-16,0.04,0.83,3.08,0.07,0.08,0.18,0.27,0.85,1.37,2.0,3.12,0.10602895471010254,0.6968269452792826,0.3349661057240043,3.14
2012-04-23,0.07,0.82,3.12,0.04,0.08,0.17,0.27,0.83,1.34,1.96,3.08,0.10546433918760328,0.6968269452792826,0.3349661057240043,3.16
2012-04-30,0.06,0.79,3.07,0.07,0.1,0.2,0.27,0.82,1.33,1.95,3.12,0.1051884016416991,0.6968269452792826,0.3349661057240043,3.2
2012-05-07,0.07,0.73,2.95,0.06,0.1,0.18,0.27,0.79,1.29,1.92,3.07,0.10517982392598642,0.6968269452792826,0.3349661057240043,3.18
2012-05-14,0.06,0.75,2.8,0.07,0.1,0.19,0.29,0.73,1.2,1.78,2.95,0.10507317012252952,0.6968269452792826,0.3349661057240043,3.22
2012-05-21,0.06,0.76,2.85,0.06,0.09,0.21,0.3,0.75,1.18,1.75,2.8,0.10449631874085188,0.6968269452792826,0.3349661057240043,3.25
2012-05-29,0.05,0.68,2.63,0.06,0.09,0.2,0.3,0.76,1.17,1.74,2.85,0.10449827395546286,0.6968269452792826,0.3349661057240043,3.38
2012-06-05,0.06,0.75,2.77,0.05,0.08,0.18,0.25,0.68,1.04,1.57,2.63,0.10448887631104235,0.6968269452792826,0.3349661057240043,3.4
2012-06-12,0.06,0.71,2.73,0.06,0.1,0.19,0.3,0.75,1.12,1.67,2.77,0.10496929146239141,0.6968269452792826,0.3349661057240043,3.43
2012-06-19,0.07,0.75,2.71,0.06,0.09,0.18,0.3,0.71,1.09,1.64,2.73,0.10470855413330162,0.6968269452792826,0.3349661057240043,3.41
2012-06-26,0.06,0.67,2.69,0.07,0.1,0.21,0.31,0.75,1.12,1.66,2.71,0.10492419538346079,0.6968269452792826,0.3349661057240043,3.34
2012-07-02,0.06,0.63,2.62,0.06,0.1,0.21,0.3,0.67,1.04,1.61,2.69,0.1037286882307248,0.7017445276555062,0.3408451510745514,3.4
2012-07-09,0.04,0.6,2.56,0.06,0.09,0.2,0.27,0.63,0.98,1.53,2.62,0.1037190406716195,0.7017445276555062,0.3408451510745514,3.41
2012-07-16,0.07,0.57,2.52,0.04,0.1,0.18,0.24,0.6,0.97,1.5,2.56,0.10348637889138965,0.7017445276555062,0.3408451510745514,3.35
2012-07-23,0.06,0.61,2.58,0.07,0.1,0.17,0.22,0.57,0.93,1.47,2.52,0.10261853426812995,0.7017445276555062,0.3408451510745514,3.31
2012-07-30,0.05,0.65,2.65,0.06,0.11,0.18,0.23,0.61,0.99,1.53,2.58,0.10278895373155138,0.7017445276555062,0.3408451510745514,3.26
2012-08-06,0.1,0.71,2.74,0.05,0.1,0.16,0.24,0.65,1.05,1.59,2.65,0.10265587965821499,0.7017445276555062,0.3408451510745514,3.24
2012-08-13,0.09,0.8,2.93,0.1,0.11,0.19,0.27,0.71,1.12,1.65,2.74,0.10285020017129086,0.7017445276555062,0.3408451510745514,3.24
2012-08-20,0.1,0.7,2.76,0.09,0.11,0.19,0.29,0.8,1.26,1.82,2.93,0.1024732607006991,0.7017445276555062,0.3408451510745514,3.23
2012-08-27,0.1,0.62,2.69,0.1,0.11,0.18,0.28,0.7,1.11,1.65,2.76,0.10190013344752724,0.7017445276555062,0.3408451510745514,3.19
2012-09-04,0.09,0.67,2.84,0.1,0.1,0.16,0.23,0.62,1.03,1.59,2.69,0.10204086332583107,0.7017445276555062,0.3408451510745514,3.18
2012-09-11,0.08,0.71,3.0,0.09,0.1,0.18,0.25,0.67,1.12,1.7,2.84,0.10262899097735376,0.7017445276555062,0.3408451510745514,3.18
2012-09-18,0.06,0.66,2.86,0.08,0.1,0.18,0.25,0.71,1.19,1.82,3.0,0.10275279094548569,0.7017445276555062,0.3408451510745514,3.09
2012-09-25,0.09,0.61,2.81,0.06,0.11,0.18,0.27,0.66,1.08,1.7,2.86,0.1024569532136953,0.7017445276555062,0.3408451510745514,3.03
2012-10-02,0.12,0.66,2.89,0.09,0.09,0.16,0.23,0.61,1.03,1.64,2.81,0.1003121818468386,0.7050903897283044,0.3391889235689992,3.04
2012-10-10,0.13,0.78,2.98,0.12,0.1,0.18,0.27,0.66,1.09,1.72,2.89,0.10063677794255732,0.7050903897283044,0.3391889235689992,2.9
2012-10-17,0.13,0.76,2.93,0.13,0.11,0.18,0.3,0.78,1.24,1.83,2.98,0.10096216514237136,0.7050903897283044,0.3391889235689992,2.77
2012-10-24,0.06,0.73,2.89,0.13,0.11,0.18,0.29,0.76,1.21,1.8,2.93,0.10019783687798679,0.7050903897283044,0.3391889235689992,2.74
2012-11-01,0.13,0.65,2.77,0.06,0.09,0.18,0.3,0.73,1.16,1.75,2.89,0.10012542042618604,0.7050903897283044,0.3391889235689992,2.75
2012-11-08,0.07,0.62,2.73,0.13,0.1,0.2,0.27,0.65,1.04,1.62,2.77,0.10048780695599575,0.7050903897283044,0.3391889235689992,2.8
2012-11-16,0.14,0.68,2.8,0.07,0.06,0.16,0.24,0.62,1.01,1.58,2.73,0.10082518242556167,0.7050903897283044,0.3391889235689992,2.9
2012-11-26,0.13,0.63,2.8,0.14,0.1,0.17,0.27,0.68,1.09,1.66,2.8,0.10043912362705405,0.7050903897283044,0.3391889235689992,2.9
2012-12-03,0.05,0.62,2.8,0.13,0.1,0.18,0.25,0.63,1.05,1.63,2.8,0.10020520023148922,0.7050903897283044,0.3391889235689992,2.95
2012-12-10,0.01,0.74,2.94,0.05,0.09,0.18,0.24,0.62,1.04,1.63,2.8,0.10062801494334782,0.7050903897283044,0.3391889235689992,2.95
2012-12-17,0.03,0.77,2.94,0.01,0.05,0.13,0.25,0.74,1.2,1.78,2.94,0.10106701686207951,0.7050903897283044,0.3391889235689992,2.9
2012-12-24,0.02,0.72,2.95,0.03,0.06,0.16,0.26,0.77,1.22,1.79,2.94,0.10094798612281708,0.7050903897283044,0.3391889235689992,2.86
2013-01-01,0.06,0.79,3.06,0.02,0.05,0.16,0.25,0.72,1.18,1.78,2.95,0.09879508431655092,0.7108808749857868,0.3413553123621722,2.85
2013-01-08,0.09,0.75,3.02,0.06,0.07,0.14,0.25,0.79,1.28,1.89,3.06,0.0993429223270284,0.7108808749857868,0.3413553123621722,2.81
2013-01-15,0.06,0.76,3.02,0.09,0.09,0.14,0.26,0.75,1.24,1.86,3.02,0.09995044534495996,0.7108808749857868,0.3413553123621722,2.81
2013-01-23,0.04,0.88,3.19,0.06,0.08,0.15,0.26,0.76,1.24,1.86,3.02,0.10116584913311552,0.7108808749857868,0.3413553123621722,2.83
2013-01-30,0.06,0.84,3.18,0.04,0.07,0.15,0.27,0.88,1.39,2.03,3.19,0.10196286161527188,0.7108808749857868,0.3413553123621722,2.84
2013-02-06,0.09,0.92,3.23,0.06,0.07,0.15,0.27,0.84,1.35,2.0,3.18,0.10238763283715277,0.7108808749857868,0.3413553123621722,2.86
2013-02-13,0.12,0.86,3.17,0.09,0.1,0.15,0.29,0.92,1.43,2.05,3.23,0.10306110152765595,0.7108808749857868,0.3413553123621722,2.84
2013-02-21,0.07,0.77,3.1,0.12,0.13,0.16,0.26,0.86,1.36,1.99,3.17,0.1035368524512084,0.7108808749857868,0.3413553123621722,2.87
2013-02-28,0.1,0.85,3.2,0.07,0.11,0.17,0.25,0.77,1.26,1.89,3.1,0.10431728907714874,0.7108808749857868,0.3413553123621722,2.89
2013-03-07,0.08,0.88,3.25,0.1,0.1,0.15,0.25,0.85,1.36,2.0,3.2,0.10504579199530438,0.7108808749857868,0.3413553123621722,2.89
2013-03-14,0.08,0.81,3.15,0.08,0.1,0.15,0.27,0.88,1.4,2.04,3.25,0.10553615113746447,0.7108808749857868,0.3413553123621722,2.88
2013-03-21,0.04,0.77,3.1,0.08,0.07,0.14,0.27,0.81,1.3,1.95,3.15,0.10641055736555027,0.7108808749857868,0.3413553123621722,2.9
2013-03-28,0.05,0.68,2.87,0.04,0.07,0.14,0.25,0.77,1.24,1.87,3.1,0.10699530348753034,0.7108808749857868,0.3413553123621722,2.96
2013-04-05,0.05,0.7,2.92,0.05,0.07,0.13,0.24,0.68,1.12,1.72,2.87,0.10787456566728322,0.711336203394367,0.33426293678218605,2.82
2013-04-12,0.04,0.72,2.88,0.05,0.06,0.11,0.22,0.7,1.14,1.75,2.92,0.10840287436254056,0.711336203394367,0.33426293678218605,2.82
2013-04-19,0.04,0.68,2.87,0.04,0.05,0.12,0.24,0.72,1.14,1.73,2.88,0.1090337620501938,0.711336203394367,0.33426293678218605,2.81
2013-04-26,0.02,0.73,2.96,0.04,0.05,0.12,0.22,0.68,1.1,1.7,2.87,0.10970198920799698,0.711336203394367,0.33426293678218605,2.81
2013-05-03,0.02,0.82,3.1,0.02,0.05,0.11,0.22,0.73,1.17,1.78,2.96,0.11040432970572912,0.711336203394367,0.33426293678218605,2.82
2013-05-10,0.01,0.84,3.17,0.02,0.04,0.11,0.26,0.82,1.28,1.9,3.1,0.11078375846560468,0.711336203394367,0.33426293678218605,2.82
2013-05-17,0.03,0.9,3.18,0.01,0.04,0.12,0.26,0.84,1.32,1.95,3.17,0.11139158529649332,0.711336203394367,0.33426293678218605,2.81
2013-05-24,0.03,1.03,3.27,0.03,0.04,0.12,0.26,0.9,1.39,2.01,3.18,0.11214709719971896,0.711336203394367,0.33426293678218605,2.75
2013-06-03,0.04,1.13,3.36,0.03,0.05,0.14,0.3,1.03,1.53,2.13,3.27,0.11252975208981547,0.711336203394367,0.33426293678218605,2.82
2013-06-10,0.05,1.06,3.35,0.04,0.05,0.14,0.32,1.13,1.62,2.22,3.36,0.11339310038283412,0.711336203394367,0.33426293678218605,2.89
2013-06-17,0.01,1.48,3.56,0.05,0.05,0.13,0.27,1.06,1.57,2.19,3.35,0.1138751678782578,0.711336203394367,0.33426293678218605,2.93
2013-06-24,0.01,1.39,3.48,0.01,0.06,0.16,0.42,1.48,2.02,2.57,3.56,0.1146295446615909,0.711336203394367,0.33426293678218605,2.86
2013-07-01,0.04,1.5,3.64,0.01,0.04,0.15,0.34,1.39,1.93,2.5,3.48,0.11521061429617796,0.71578737951199,0.3377189156766148,2.83
2013-07-09,0.02,1.38,3.58,0.04,0.04,0.14,0.37,1.5,2.08,2.65,3.64,0.11606267826012147,0.71578737951199,0.3377189156766148,2.78
2013-07-16,0.02,1.33,3.58,0.02,0.03,0.1,0.34,1.38,1.95,2.55,3.58,0.1166512129753653,0.71578737951199,0.3377189156766148,2.74
2013-07-23,0.03,1.39,3.67,0.02,0.02,0.12,0.33,1.33,1.92,2.53,3.58,0.1171973894413849,0.71578737951199,0.3377189156766148,2.7
2013-07-30,0.05,1.39,3.73,0.03,0.04,0.11,0.33,1.39,2.02,2.63,3.67,0.11769517354933451,0.71578737951199,0.3377189156766148,2.68
2013-08-06,0.06,1.49,3.75,0.05,0.04,0.12,0.32,1.39,2.04,2.67,3.73,0.11843623380797673,0.71578737951199,0.3377189156766148,2.69
2013-08-13,0.03,1.57,3.86,0.06,0.06,0.12,0.34,1.49,2.13,2.71,3.75,0.11909150218243561,0.71578737951199,0.3377189156766148,2.72
2013-08-20,0.04,1.56,3.7,0.03,0.04,0.13,0.36,1.57,2.22,2.82,3.86,0.11955260368809512,0.71578737951199,0.3377189156766148,2.72
2013-08-27,0.02,1.74,3.8,0.04,0.05,0.12,0.38,1.56,2.15,2.72,3.7,0.12021432437696332,0.71578737951199,0.3377189156766148,2.66
2013-09-04,0.01,1.72,3.85,0.02,0.02,0.14,0.46,1.74,2.36,2.9,3.8,0.12147617004955139,0.71578737951199,0.3377189156766148,2.55
2013-09-11,0.01,1.43,3.75,0.01,0.02,0.12,0.47,1.72,2.34,2.93,3.85,0.12194205104736597,0.71578737951199,0.3377189156766148,2.61
2013-09-18,0.02,1.41,3.65,0.01,0.01,0.11,0.34,1.43,2.05,2.69,3.75,0.12259725967817289,0.71578737951199,0.3377189156766148,2.75
2013-09-25,0.08,1.38,3.7,0.02,0.02,0.1,0.36,1.41,2.01,2.63,3.65,0.12319164927130667,0.71578737951199,0.3377189156766148,2.7
2013-10-02,0.26,1.43,3.73,0.08,0.02,0.11,0.31,1.38,2.01,2.63,3.7,0.1210604216489755,0.7201625262683244,0.3376404651891258,2.77
2013-10-09,0.01,1.35,3.66,0.26,0.05,0.15,0.37,1.43,2.06,2.68,3.73,0.12163246244678065,0.7201625262683244,0.3376404651891258,2.71
2013-10-17,0.02,1.32,3.61,0.01,0.05,0.13,0.33,1.35,1.98,2.61,3.66,0.12211584682992697,0.7201625262683244,0.3376404651891258,2.66
2013-10-24,0.03,1.31,3.63,0.02,0.03,0.12,0.33,1.32,1.92,2.53,3.61,0.12278272259594375,0.7201625262683244,0.3376404651891258,2.68
2013-10-31,0.04,1.31,3.71,0.03,0.04,0.1,0.31,1.31,1.95,2.57,3.63,0.12343992251394385,0.7201625262683244,0.3376404651891258,2.65
2013-11-07,0.06,1.36,3.8,0.04,0.05,0.11,0.29,1.31,1.98,2.63,3.71,0.1238946873707276,0.7201625262683244,0.3376404651891258,2.7
2013-11-15,0.02,1.37,3.84,0.06,0.08,0.13,0.31,1.36,2.06,2.71,3.8,0.12456412781935122,0.7201625262683244,0.3376404651891258,2.7
2013-11-22,0.02,1.43,3.86,0.02,0.07,0.12,0.31,1.37,2.1,2.75,3.84,0.12537550013496643,0.7201625262683244,0.3376404651891258,2.65
2013-12-02,0.04,1.5,3.88,0.02,0.05,0.13,0.3,1.43,2.16,2.81,3.86,0.12611628539065275,0.7201625262683244,0.3376404651891258,2.6
2013-12-09,0.02,1.55,3.9,0.04,0.07,0.13,0.3,1.5,2.23,2.86,3.88,0.12647312600244845,0.7201625262683244,0.3376404651891258,2.57
2013-12-16,0.01,1.68,3.85,0.02,0.07,0.13,0.34,1.55,2.26,2.89,3.9,0.127401715970844,0.7201625262683244,0.3376404651891258,2.5
2013-12-23,0.01,1.71,3.9,0.01,0.07,0.14,0.38,1.68,2.37,2.94,3.85,0.12807628578468125,0.7201625262683244,0.3376404651891258,2.35
2013-12-30,0.01,1.7,3.9,0.01,0.07,0.13,0.39,1.71,2.4,2.99,3.9,0.1287487572218402,0.7201625262683244,0.3376404651891258,2.35
2014-01-06,0.0,1.6,3.77,0.01,0.05,0.12,0.4,1.7,2.38,2.98,3.9,0.12548983090781116,0.7183136152951155,0.3379480305549153,2.32
2014-01-13,0.01,1.67,3.74,0.0,0.03,0.11,0.39,1.6,2.25,2.84,3.77,0.1257255531105871,0.7183136152951155,0.3379480305549153,2.34
2014-01-21,0.05,1.59,3.68,0.01,0.04,0.12,0.4,1.67,2.29,2.85,3.74,0.1261817144907,0.7183136152951155,0.3379480305549153,2.3
2014-01-28,0.12,1.46,3.59,0.05,0.05,0.11,0.38,1.59,2.22,2.77,3.68,0.12677695708373057,0.7183136152951155,0.3379480305549153,2.35
2014-02-04,0.05,1.54,3.69,0.12,0.06,0.12,0.31,1.46,2.09,2.64,3.59,0.12744429692316336,0.7183136152951155,0.3379480305549153,2.41
2014-02-11,0.04,1.53,3.71,0.05,0.05,0.12,0.35,1.54,2.19,2.75,3.69,0.12800090584593904,0.7183136152951155,0.3379480305549153,2.39
2014-02-19,0.04,1.5,3.63,0.04,0.06,0.11,0.33,1.53,2.17,2.73,3.71,0.12884738092406853,0.7183136152951155,0.3379480305549153,2.41
2014-02-26,0.06,1.54,3.64,0.04,0.05,0.11,0.33,1.5,2.12,2.67,3.63,0.12943733979454955,0.7183136152951155,0.3379480305549153,2.38
2014-03-05,0.05,1.59,3.66,0.06,0.06,0.13,0.33,1.54,2.16,2.7,3.64,0.13001667440571046,0.7183136152951155,0.3379480305549153,2.36
2014-03-12,0.07,1.75,3.66,0.05,0.05,0.12,0.37,1.59,2.2,2.73,3.66,0.13044192884961942,0.7183136152951155,0.3379480305549153,2.38
2014-03-19,0.05,1.7,3.55,0.07,0.06,0.15,0.47,1.75,2.31,2.78,3.66,0.13100194662565287,0.7183136152951155,0.3379480305549153,2.37
2014-03-26,0.02,1.8,3.65,0.05,0.05,0.12,0.45,1.7,2.27,2.71,3.55,0.131328287510865,0.7183136152951155,0.3379480305549153,2.28
2014-04-02,0.03,1.65,3.57,0.02,0.02,0.12,0.47,1.8,2.39,2.82,3.65,0.13161145890743547,0.7129984643222902,0.3413392212132455,2.25
2014-04-09,0.03,1.67,3.45,0.03,0.04,0.1,0.37,1.65,2.24,2.71,3.57,0.13191952454447176,0.7129984643222902,0.3413392212132455,2.25
2014-04-16,0.0,1.74,3.46,0.03,0.04,0.11,0.39,1.67,2.21,2.65,3.45,0.13248132465501697,0.7129984643222902,0.3413392212132455,2.19
2014-04-24,0.02,1.66,3.41,0.0,0.01,0.1,0.43,1.74,2.3,2.7,3.46,0.13280895631649683,0.7129984643222902,0.3413392212132455,2.14
2014-05-01,0.02,1.63,3.45,0.02,0.03,0.1,0.41,1.66,2.21,2.63,3.41,0.13329124464075248,0.7129984643222902,0.3413392212132455,2.14
2014-05-08,0.01,1.55,3.33,0.02,0.03,0.1,0.4,1.63,2.16,2.61,3.45,0.13355462034369736,0.7129984643222902,0.3413392212132455,2.18
2014-05-15,0.03,1.57,3.43,0.01,0.03,0.09,0.38,1.55,2.05,2.5,3.33,0.13391826483277627,0.7129984643222902,0.3413392212132455,2.22
2014-05-22,0.05,1.54,3.33,0.03,0.03,0.09,0.37,1.57,2.1,2.56,3.43,0.13425332591223327,0.7129984643222902,0.3413392212132455,2.25
2014-05-30,0.02,1.66,3.44,0.05,0.04,0.1,0.37,1.54,2.06,2.48,3.33,0.1344511412550136,0.7129984643222902,0.3413392212132455,2.22
2014-06-06,0.02,1.7,3.41,0.02,0.04,0.11,0.41,1.66,2.19,2.6,3.44,0.1348743345141382,0.7129984643222902,0.3413392212132455,2.23
2014-06-13,0.01,1.71,3.44,0.02,0.04,0.11,0.45,1.7,2.21,2.6,3.41,0.13530620487975514,0.7129984643222902,0.3413392212132455,2.19
2014-06-20,0.02,1.64,3.36,0.01,0.02,0.09,0.5,1.71,2.22,2.63,3.44,0.13562810851668777,0.7129984643222902,0.3413392212132455,2.2
2014-06-27,0.02,1.74,3.44,0.02,0.03,0.1,0.45,1.64,2.14,2.54,3.36,0.13593974707992681,0.7129984643222902,0.3413392212132455,2.2
2014-07-07,0.02,1.68,3.36,0.02,0.04,0.12,0.52,1.74,2.24,2.63,3.44,0.13490616144875095,0.7172777195512743,0.3405058249599657,2.18
2014-07-14,0.02,1.7,3.26,0.02,0.03,0.11,0.48,1.68,2.17,2.55,3.36,0.13512659369456057,0.7172777195512743,0.3405058249599657,2.21
2014-07-21,0.03,1.73,3.26,0.02,0.03,0.11,0.51,1.7,2.14,2.49,3.26,0.1352294321538553,0.7172777195512743,0.3405058249599657,2.19
2014-07-28,0.02,1.66,3.3,0.03,0.04,0.11,0.54,1.73,2.17,2.5,3.26,0.13541328465309638,0.7172777195512743,0.3405058249599657,2.19
2014-08-04,0.03,1.62,3.24,0.02,0.04,0.12,0.47,1.66,2.15,2.51,3.3,0.1357874416007432,0.7172777195512743,0.3405058249599657,2.24
2014-08-11,0.02,1.58,3.2,0.03,0.04,0.1,0.47,1.62,2.09,2.44,3.24,0.13591541460982734,0.7172777195512743,0.3405058249599657,2.28
2014-08-18,0.02,1.69,3.13,0.02,0.03,0.1,0.44,1.58,2.04,2.39,3.2,0.1362004785550955,0.7172777195512743,0.3405058249599657,2.31
2014-08-25,0.02,1.69,3.17,0.02,0.04,0.11,0.53,1.69,2.09,2.39,3.13,0.13641075599395897,0.7172777195512743,0.3405058249599657,2.25
2014-09-02,0.01,1.76,3.23,0.02,0.03,0.1,0.53,1.69,2.11,2.42,3.17,0.1366652994144828,0.7172777195512743,0.3405058249599657,2.25
2014-09-09,0.01,1.78,3.36,0.01,0.02,0.11,0.56,1.76,2.19,2.5,3.23,0.13672443293117492,0.7172777195512743,0.3405058249599657,2.25
2014-09-16,0.01,1.78,3.25,0.01,0.02,0.13,0.55,1.78,2.26,2.6,3.36,0.1369292682911777,0.7172777195512743,0.3405058249599657,2.3
2014-09-23,0.02,1.78,3.21,0.01,0.01,0.1,0.57,1.78,2.23,2.54,3.25,0.137262244971982,0.7172777195512743,0.3405058249599657,2.26
2014-09-30,0.02,1.64,3.06,0.02,0.02,0.13,0.58,1.78,2.22,2.52,3.21,0.13737742629054833,0.7172777195512743,0.3405058249599657,2.29
2014-10-07,0.02,1.37,2.92,0.02,0.02,0.1,0.52,1.64,2.06,2.36,3.06,0.135145581575535,0.7179041536054132,0.33942722530797437,2.3
2014-10-15,0.04,1.46,3.01,0.02,0.02,0.1,0.34,1.37,1.8,2.15,2.92,0.13534451833051436,0.7179041536054132,0.33942722530797437,2.44
2014-10-22,0.01,1.61,3.06,0.04,0.02,0.11,0.41,1.46,1.9,2.25,3.01,0.1355568498295946,0.7179041536054132,0.33942722530797437,2.42
2014-10-29,0.04,1.63,3.06,0.01,0.03,0.11,0.48,1.61,2.03,2.34,3.06,0.13568820651762892,0.7179041536054132,0.33942722530797437,2.36
2014-11-05,0.05,1.64,3.08,0.04,0.03,0.11,0.52,1.63,2.05,2.36,3.06,0.13568826164003261,0.7179041536054132,0.33942722530797437,2.39
2014-11-13,0.04,1.64,3.05,0.05,0.02,0.15,0.53,1.64,2.05,2.35,3.08,0.13568941921051048,0.7179041536054132,0.33942722530797437,2.47
2014-11-20,0.04,1.49,2.89,0.04,0.02,0.14,0.53,1.64,2.05,2.34,3.05,0.1356905216585846,0.7179041536054132,0.33942722530797437,2.52
2014-11-28,0.02,1.69,2.97,0.04,0.02,0.13,0.47,1.49,1.89,2.18,2.89,0.1356917894738699,0.7179041536054132,0.33942722530797437,2.52
2014-12-05,0.02,1.53,2.75,0.02,0.02,0.18,0.65,1.69,2.06,2.31,2.97,0.13569068702579573,0.7179041536054132,0.33942722530797437,2.48
2014-12-12,0.01,1.66,2.77,0.02,0.02,0.19,0.56,1.53,1.86,2.1,2.75,0.13568710406955478,0.7179041536054132,0.33942722530797437,2.58
2014-12-19,0.01,1.72,2.78,0.01,0.04,0.26,0.67,1.66,1.98,2.17,2.77,0.1356835211133138,0.7179041536054132,0.33942722530797437,2.56
2014-12-29,0.02,1.57,2.6,0.01,0.03,0.25,0.72,1.72,2.02,2.22,2.78,0.13567938693303577,0.7179041536054132,0.33942722530797437,2.49
2015-01-05,0.02,1.39,2.49,0.02,0.03,0.26,0.68,1.57,1.85,2.04,2.6,0.13559698141081097,0.7211405143307182,0.34004963404696414,2.52
2015-01-12,0.01,1.31,2.39,0.02,0.03,0.19,0.56,1.39,1.69,1.92,2.49,0.13558926878586094,0.7211405143307182,0.34004963404696414,2.55
2015-01-20,0.02,1.34,2.4,0.01,0.03,0.17,0.53,1.31,1.61,1.82,2.39,0.13558155616091092,0.7211405143307182,0.34004963404696414,2.61
2015-01-27,0.02,1.28,2.37,0.02,0.02,0.17,0.54,1.34,1.62,1.83,2.4,0.1355738435359609,0.7211405143307182,0.34004963404696414,2.59
2015-02-03,0.02,1.52,2.58,0.02,0.02,0.21,0.52,1.28,1.6,1.79,2.37,0.13556613091101086,0.7211405143307182,0.34004963404696414,2.61
2015-02-10,0.02,1.52,2.7,0.02,0.01,0.25,0.67,1.52,1.82,2.01,2.58,0.13555775720392224,0.7211405143307182,0.34004963404696414,2.53
2015-02-18,0.02,1.47,2.56,0.02,0.02,0.23,0.62,1.52,1.86,2.07,2.7,0.13553990798618074,0.7211405143307182,0.34004963404696414,2.53
2015-02-25,0.01,1.6,2.72,0.02,0.02,0.21,0.61,1.47,1.78,1.96,2.56,0.1355310384674882,0.7211405143307182,0.34004963404696414,2.49
2015-03-04,0.03,1.6,2.69,0.01,0.01,0.26,0.66,1.6,1.93,2.12,2.72,0.13552338093271638,0.7211405143307182,0.34004963404696414,2.46
2015-03-11,0.02,1.41,2.51,0.03,0.03,0.25,0.7,1.6,1.92,2.11,2.69,0.13551677011133065,0.7211405143307182,0.34004963404696414,2.45
2015-03-18,0.02,1.41,2.5,0.02,0.03,0.23,0.57,1.41,1.73,1.93,2.51,0.1355101041997667,0.7211405143307182,0.34004963404696414,2.55
2015-03-25,0.02,1.32,2.47,0.02,0.04,0.25,0.59,1.41,1.73,1.93,2.5,0.13550343828820272,0.7211405143307182,0.34004963404696414,2.53
2015-04-01,0.02,1.35,2.53,0.02,0.03,0.27,0.55,1.32,1.65,1.87,2.47,0.13549902330310967,0.7203083649524421,0.339527362222054,2.55
2015-04-08,0.02,1.33,2.55,0.02,0.03,0.22,0.54,1.35,1.68,1.92,2.53,0.13550535869384736,0.7203083649524421,0.339527362222054,2.51
2015-04-15,0.01,1.41,2.66,0.02,0.02,0.23,0.51,1.33,1.66,1.91,2.55,0.13551158390387658,0.7203083649524421,0.339527362222054,2.54
2015-04-22,0.0,1.43,2.76,0.01,0.03,0.23,0.57,1.41,1.75,1.99,2.66,0.13551786420426004,0.7203083649524421,0.339527362222054,2.53
2015-04-29,0.02,1.58,2.98,0.0,0.01,0.25,0.56,1.43,1.8,2.06,2.76,0.1355241445046435,0.7203083649524421,0.339527362222054,2.58
2015-05-06,0.02,1.57,3.07,0.02,0.02,0.25,0.65,1.58,1.97,2.25,2.98,0.13553229787707116,0.7203083649524421,0.339527362222054,2.64
2015-05-13,0.02,1.57,3.06,0.02,0.02,0.24,0.59,1.57,2.0,2.27,3.07,0.1355406716109158,0.7203083649524421,0.339527362222054,2.71
2015-05-20,0.01,1.51,2.89,0.02,0.02,0.23,0.6,1.57,1.98,2.26,3.06,0.1355490453447604,0.7203083649524421,0.339527362222054,2.73
2015-05-28,0.02,1.65,3.03,0.01,0.01,0.26,0.62,1.51,1.89,2.13,2.89,0.13555747416895925,0.7203083649524421,0.339527362222054,2.75
2015-06-04,0.01,1.74,3.11,0.02,0.02,0.27,0.66,1.65,2.05,2.31,3.03,0.13556353410792574,0.7203083649524421,0.339527362222054,2.72
2015-06-11,0.0,1.65,3.14,0.01,0.01,0.28,0.73,1.74,2.14,2.39,3.11,0.13556650898705475,0.7203083649524421,0.339527362222054,2.71
2015-06-18,0.0,1.7,3.16,0.0,0.01,0.26,0.66,1.65,2.08,2.35,3.14,0.13556948386618375,0.7203083649524421,0.339527362222054,2.82
2015-06-25,0.01,1.64,3.19,0.0,0.01,0.29,0.68,1.7,2.14,2.4,3.16,0.13557245874531276,0.7203083649524421,0.339527362222054,2.8
2015-07-02,0.01,1.68,3.2,0.01,0.01,0.26,0.64,1.64,2.09,2.4,3.19,0.13558629243367912,0.7230473364598384,0.33640176879927725,2.86
2015-07-10,0.03,1.67,3.08,0.01,0.01,0.28,0.65,1.68,2.12,2.42,3.2,0.1355935649133269,0.7230473364598384,0.33640176879927725,2.9
2015-07-17,0.04,1.64,2.96,0.03,0.03,0.29,0.68,1.67,2.07,2.34,3.08,0.13560078229843192,0.7230473364598384,0.33640176879927725,2.87
2015-07-24,0.04,1.54,2.92,0.04,0.04,0.32,0.7,1.64,2.02,2.27,2.96,0.13560805477807975,0.7230473364598384,0.33640176879927725,2.87
2015-07-31,0.03,1.59,2.83,0.04,0.08,0.33,0.67,1.54,1.93,2.2,2.92,0.13561532725772754,0.7230473364598384,0.33640176879927725,2.94
2015-08-07,0.04,1.61,2.84,0.03,0.06,0.38,0.73,1.59,1.93,2.18,2.83,0.13562089180654896,0.7230473364598384,0.33640176879927725,2.91
2015-08-14,0.02,1.44,2.74,0.04,0.09,0.41,0.73,1.61,1.96,2.2,2.84,0.13562590540994252,0.7230473364598384,0.33640176879927725,2.97
2015-08-21,0.02,1.52,2.92,0.02,0.03,0.36,0.64,1.44,1.79,2.05,2.74,0.13563091901333607,0.7230473364598384,0.33640176879927725,3.1
2015-08-28,0.02,1.47,2.89,0.02,0.06,0.38,0.72,1.52,1.92,2.19,2.92,0.13563593261672963,0.7230473364598384,0.33640176879927725,3.13
2015-09-04,0.02,1.51,2.95,0.02,0.02,0.36,0.71,1.47,1.85,2.13,2.89,0.13563951376201075,0.7230473364598384,0.33640176879927725,3.15
2015-09-14,0.0,1.51,3.02,0.02,0.07,0.4,0.73,1.51,1.88,2.18,2.95,0.13563962395109633,0.7230473364598384,0.33640176879927725,3.13
2015-09-21,0.0,1.42,2.87,0.0,0.01,0.36,0.72,1.51,1.9,2.2,3.02,0.13563967904563912,0.7230473364598384,0.33640176879927725,3.19
2015-09-28,0.0,1.35,2.9,0.0,0.01,0.34,0.67,1.42,1.8,2.1,2.87,0.13563978923472467,0.7230473364598384,0.33640176879927725,3.21
2015-10-05,0.0,1.36,2.89,0.0,0.01,0.26,0.61,1.35,1.74,2.07,2.9,0.13010911692569868,0.7240111194382,0.32481459984074773,3.33
2015-10-13,0.08,1.4,2.92,0.0,0.01,0.27,0.64,1.36,1.74,2.06,2.89,0.1301071615483608,0.7240111194382,0.32481459984074773,3.28
2015-10-20,0.01,1.38,2.86,0.08,0.02,0.23,0.66,1.4,1.78,2.08,2.92,0.1301052061710229,0.7240111194382,0.32481459984074773,3.29
2015-10-27,0.07,1.59,3.0,0.01,0.03,0.29,0.65,1.38,1.75,2.05,2.86,0.130103250793685,0.7240111194382,0.32481459984074773,3.25
2015-11-03,0.08,1.72,3.1,0.07,0.06,0.39,0.8,1.59,1.96,2.23,3.0,0.13010129541634713,0.7240111194382,0.32481459984074773,3.19
2015-11-10,0.07,1.66,3.04,0.08,0.13,0.51,0.87,1.72,2.08,2.32,3.1,0.13009918149490077,0.7240111194382,0.32481459984074773,3.18
2015-11-17,0.13,1.66,3.0,0.07,0.14,0.5,0.86,1.66,2.02,2.25,3.04,0.1300969618773821,0.7240111194382,0.32481459984074773,3.23
2015-11-24,0.19,1.63,2.91,0.13,0.16,0.52,0.93,1.66,2.01,2.24,3.0,0.13009474225986342,0.7240111194382,0.32481459984074773,3.2
2015-12-02,0.19,1.64,2.97,0.19,0.21,0.52,0.94,1.63,1.97,2.18,2.91,0.1300907786571515,0.7240111194382,0.32481459984074773,3.17
2015-12-09,0.2,1.75,3.02,0.19,0.26,0.72,0.93,1.64,1.99,2.22,2.97,0.13009014448071757,0.7240111194382,0.32481459984074773,3.18
2015-12-16,0.19,1.74,3.0,0.2,0.27,0.7,1.02,1.75,2.11,2.3,3.02,0.13008956315231981,0.7240111194382,0.32481459984074773,3.21
2015-12-23,0.14,1.76,3.01,0.19,0.2,0.65,1.01,1.74,2.07,2.27,3.0,0.13008892897588592,0.7240111194382,0.32481459984074773,3.26
2015-12-31,0.2,1.61,2.92,0.14,0.16,0.65,1.06,1.76,2.09,2.27,3.01,0.130088294799452,0.7240111194382,0.32481459984074773,3.23
2016-01-07,0.22,1.52,2.9,0.2,0.2,0.66,0.96,1.61,1.94,2.16,2.92,0.1277712324965057,0.7230628656545448,0.32620918239087077,3.28
2016-01-14,0.26,1.49,2.83,0.22,0.25,0.55,0.9,1.52,1.87,2.1,2.9,0.12776837756922044,0.7230628656545448,0.32620918239087077,3.36
2016-01-22,0.22,1.33,2.75,0.26,0.31,0.47,0.88,1.49,1.81,2.07,2.83,0.127765574549704,0.7230628656545448,0.32620918239087077,3.42
2016-01-29,0.23,1.25,2.68,0.22,0.33,0.47,0.76,1.33,1.67,1.94,2.75,0.12776271962241872,0.7230628656545448,0.32620918239087077,3.48
2016-02-05,0.26,1.2,2.6,0.23,0.3,0.55,0.74,1.25,1.58,1.86,2.68,0.12775898226306348,0.7230628656545448,0.32620918239087077,3.52
2016-02-12,0.28,1.25,2.62,0.26,0.3,0.51,0.71,1.2,1.5,1.74,2.6,0.1277540510250253,0.7230628656545448,0.32620918239087077,3.6
2016-02-22,0.23,1.22,2.61,0.28,0.33,0.55,0.78,1.25,1.54,1.77,2.62,0.12774917169475594,0.7230628656545448,0.32620918239087077,3.57
2016-02-29,0.27,1.42,2.71,0.23,0.33,0.62,0.78,1.22,1.52,1.74,2.61,0.12775597161247176,0.7230628656545448,0.32620918239087077,3.55
2016-03-07,0.28,1.49,2.74,0.27,0.32,0.67,0.91,1.42,1.72,1.91,2.71,0.1277529090541112,0.7230628656545448,0.32620918239087077,3.39
2016-03-14,0.26,1.38,2.72,0.28,0.34,0.7,0.97,1.49,1.78,1.97,2.74,0.1277551929959394,0.7230628656545448,0.32620918239087077,3.22
2016-03-21,0.18,1.29,2.6,0.26,0.31,0.63,0.87,1.38,1.7,1.92,2.72,0.1277574250299988,0.7230628656545448,0.32620918239087077,3.15
2016-03-29,0.19,1.17,2.54,0.18,0.23,0.63,0.78,1.29,1.59,1.81,2.6,0.127759708971827,0.7230628656545448,0.32620918239087077,3.09
2016-04-05,0.21,1.22,2.61,0.19,0.23,0.56,0.72,1.17,1.49,1.73,2.54,0.1269929800912629,0.71910035662191,0.32397237151480496,3.08
2016-04-12,0.18,1.26,2.6,0.21,0.22,0.54,0.74,1.22,1.54,1.79,2.61,0.12699396040294111,0.71910035662191,0.32397237151480496,3.03
2016-04-19,0.19,1.4,2.76,0.18,0.21,0.53,0.77,1.26,1.57,1.79,2.6,0.1269951470960253,0.71910035662191,0.32397237151480496,2.96
2016-04-26,0.18,1.25,2.66,0.19,0.24,0.61,0.86,1.4,1.72,1.94,2.76,0.126996282193758,0.71910035662191,0.32397237151480496,2.85
2016-05-03,0.25,1.2,2.61,0.18,0.21,0.53,0.75,1.25,1.57,1.81,2.66,0.12699746888684216,0.71910035662191,0.32397237151480496,2.85
2016-05-10,0.25,1.29,2.59,0.25,0.24,0.52,0.72,1.2,1.52,1.77,2.61,0.12700139013355508,0.71910035662191,0.32397237151480496,2.89
2016-05-17,0.28,1.41,2.65,0.25,0.28,0.58,0.82,1.29,1.57,1.76,2.59,0.12700737519432745,0.71910035662191,0.32397237151480496,2.89
2016-05-24,0.27,1.39,2.63,0.28,0.35,0.69,0.92,1.41,1.68,1.86,2.65,0.1270133602550998,0.71910035662191,0.32397237151480496,2.85
2016-06-01,0.2,1.23,2.51,0.27,0.3,0.7,0.91,1.39,1.67,1.85,2.63,0.12701542406915922,0.71910035662191,0.32397237151480496,2.82
2016-06-08,0.23,1.1,2.43,0.2,0.24,0.6,0.78,1.23,1.51,1.71,2.51,0.1270224410369613,0.71910035662191,0.32397237151480496,2.85
2016-06-15,0.25,1.2,2.5,0.23,0.26,0.52,0.69,1.1,1.38,1.6,2.43,0.1270294064094119,0.71910035662191,0.32397237151480496,2.9
2016-06-22,0.18,1.03,2.3,0.25,0.27,0.56,0.75,1.2,1.49,1.69,2.5,0.12703642337721396,0.71910035662191,0.32397237151480496,2.86
2016-06-29,0.27,0.97,2.14,0.18,0.26,0.46,0.62,1.03,1.3,1.5,2.3,0.12704338874966456,0.71910035662191,0.32397237151480496,2.9
2016-07-07,0.29,1.1,2.25,0.27,0.29,0.47,0.58,0.97,1.21,1.4,2.14,0.1258044764220095,0.7243359561896232,0.3145026335425368,2.79
2016-07-14,0.28,1.11,2.29,0.29,0.32,0.53,0.68,1.1,1.36,1.53,2.25,0.1258103006394633,0.7243359561896232,0.3145026335425368,2.7
2016-07-21,0.19,1.09,2.23,0.28,0.32,0.54,0.7,1.11,1.38,1.57,2.29,0.12581597158803676,0.7243359561896232,0.3145026335425368,2.68
2016-07-28,0.24,1.03,2.25,0.19,0.25,0.53,0.72,1.09,1.35,1.52,2.23,0.12582164253661018,0.7243359561896232,0.3145026335425368,2.68
2016-08-04,0.27,1.16,2.28,0.24,0.26,0.51,0.64,1.03,1.31,1.51,2.25,0.12582685367854254,0.7243359561896232,0.3145026335425368,2.76
2016-08-11,0.27,1.12,2.26,0.27,0.28,0.55,0.76,1.16,1.42,1.57,2.28,0.12583150283458022,0.7243359561896232,0.3145026335425368,2.7
2016-08-18,0.28,1.16,2.27,0.27,0.3,0.58,0.71,1.12,1.38,1.53,2.26,0.125856587841333,0.7243359561896232,0.3145026335425368,2.7
2016-08-25,0.27,1.18,2.23,0.28,0.33,0.6,0.78,1.16,1.43,1.58,2.27,0.12586123699737067,0.7243359561896232,0.3145026335425368,2.63
2016-09-01,0.24,1.23,2.39,0.27,0.33,0.6,0.78,1.18,1.44,1.57,2.23,0.12586670358743696,0.7243359561896232,0.3145026335425368,2.62
2016-09-09,0.2,1.21,2.44,0.24,0.35,0.58,0.79,1.23,1.51,1.67,2.39,0.12586435346460473,0.7243359561896232,0.3145026335425368,2.67
2016-09-16,0.09,1.16,2.34,0.2,0.3,0.61,0.77,1.21,1.51,1.7,2.44,0.1258620033417725,0.7243359561896232,0.3145026335425368,2.71
2016-09-23,0.2,1.14,2.32,0.09,0.18,0.6,0.77,1.16,1.44,1.62,2.34,0.12585960212931346,0.7243359561896232,0.3145026335425368,2.68
2016-09-30,0.26,1.28,2.46,0.2,0.29,0.59,0.77,1.14,1.42,1.6,2.32,0.12585725200648124,0.7243359561896232,0.3145026335425368,2.69
2016-10-06,0.26,1.28,2.55,0.26,0.33,0.65,0.86,1.28,1.58,1.75,2.46,0.12331653069829358,0.7228037765957527,0.30066336360624235,2.61
2016-10-14,0.25,1.25,2.48,0.26,0.32,0.66,0.84,1.28,1.58,1.8,2.55,0.12331773209028642,0.7228037765957527,0.30066336360624235,2.63
2016-10-21,0.18,1.33,2.62,0.25,0.34,0.66,0.84,1.25,1.53,1.74,2.48,0.12331888342427955,0.7228037765957527,0.30066336360624235,2.6
2016-10-28,0.25,1.24,2.56,0.18,0.3,0.66,0.86,1.33,1.63,1.86,2.62,0.12332008481627238,0.7228037765957527,0.30066336360624235,2.6
2016-11-04,0.32,1.66,2.99,0.25,0.38,0.62,0.8,1.24,1.55,1.79,2.56,0.12332218725225982,0.7228037765957527,0.30066336360624235,2.67
2016-11-14,0.28,1.79,3.0,0.32,0.55,0.77,1.0,1.66,2.01,2.23,2.99,0.12332559119623952,0.7228037765957527,0.30066336360624235,2.6
2016-11-21,0.34,1.78,2.95,0.28,0.46,0.78,1.08,1.79,2.13,2.33,3.0,0.12332899514021921,0.7228037765957527,0.30066336360624235,2.52
2016-11-29,0.35,1.84,3.08,0.34,0.48,0.78,1.09,1.78,2.12,2.3,2.95,0.12333294972219562,0.7228037765957527,0.30066336360624235,2.46
2016-12-06,0.47,1.92,3.14,0.35,0.49,0.83,1.12,1.84,2.18,2.39,3.08,0.1233359532021777,0.7228037765957527,0.30066336360624235,2.44
2016-12-13,0.48,2.06,3.15,0.47,0.54,0.88,1.17,1.92,2.26,2.48,3.14,0.12331768203228671,0.7228037765957527,0.30066336360624235,2.39
2016-12-20,0.48,2.02,3.09,0.48,0.52,0.9,1.25,2.06,2.38,2.57,3.15,0.12331943406227626,0.7228037765957527,0.30066336360624235,2.28
2016-12-28,0.49,1.94,3.05,0.48,0.53,0.9,1.26,2.02,2.32,2.51,3.09,0.12332293812225535,0.7228037765957527,0.30066336360624235,2.26
2017-01-04,0.51,1.89,2.96,0.49,0.53,0.87,1.24,1.94,2.26,2.46,3.05,0.12413276550632306,0.7242846316867223,0.3061156621698019,2.25
2017-01-11,0.47,1.97,3.04,0.51,0.52,0.82,1.2,1.89,2.18,2.38,2.96,0.12413059886871285,0.7242846316867223,0.3061156621698019,2.22
2017-01-19,0.49,1.95,3.08,0.47,0.52,0.83,1.25,1.97,2.28,2.47,3.04,0.12412838184418147,0.7242846316867223,0.3061156621698019,2.21
2017-01-26,0.5,1.92,3.09,0.49,0.51,0.82,1.21,1.95,2.3,2.51,3.08,0.12412626559349244,0.7242846316867223,0.3061156621698019,2.2
2017-02-02,0.51,1.88,3.02,0.5,0.52,0.84,1.21,1.92,2.27,2.48,3.09,0.12412445166433039,0.7242846316867223,0.3061156621698019,2.23
2017-02-09,0.51,1.95,3.05,0.51,0.54,0.8,1.2,1.88,2.2,2.4,3.02,0.12412495553354207,0.7242846316867223,0.3061156621698019,2.24
2017-02-16,0.4,1.8,2.95,0.51,0.53,0.82,1.22,1.95,2.26,2.45,3.05,0.12412545940275374,0.7242846316867223,0.3061156621698019,2.2
2017-02-24,0.56,2.02,3.08,0.4,0.52,0.8,1.12,1.8,2.12,2.31,2.95,0.12412596327196543,0.7242846316867223,0.3061156621698019,2.23
2017-03-03,0.6,2.11,3.16,0.56,0.71,0.98,1.32,2.02,2.32,2.49,3.08,0.12412757565344279,0.7242846316867223,0.3061156621698019,2.16
2017-03-10,0.71,2.03,3.11,0.6,0.75,1.03,1.36,2.11,2.4,2.58,3.16,0.12413573833467195,0.7242846316867223,0.3061156621698019,2.18
2017-03-17,0.73,1.93,3.0,0.71,0.73,1.0,1.33,2.03,2.31,2.5,3.11,0.1241439010159011,0.7242846316867223,0.3061156621698019,2.22
2017-03-24,0.74,1.93,3.02,0.73,0.78,1.0,1.26,1.93,2.22,2.4,3.0,0.12415206369713026,0.7242846316867223,0.3061156621698019,2.22
2017-03-31,0.78,1.87,2.99,0.74,0.76,1.03,1.27,1.93,2.22,2.4,3.02,0.12417025337567178,0.7242846316867223,0.3061156621698019,2.24
2017-04-06,0.76,1.77,2.89,0.78,0.79,1.05,1.24,1.87,2.15,2.34,2.99,0.12418792581581828,0.7241733928613362,0.31000444756783146,2.27
2017-04-13,0.72,1.77,2.89,0.76,0.81,1.03,1.21,1.77,2.05,2.24,2.89,0.12419256184845474,0.7241733928613362,0.31000444756783146,2.28
2017-04-21,0.68,1.81,2.96,0.72,0.79,0.99,1.2,1.77,2.05,2.24,2.89,0.12419719788109121,0.7241733928613362,0.31000444756783146,2.29
2017-04-28,0.71,1.89,2.99,0.68,0.8,1.07,1.28,1.81,2.1,2.29,2.96,0.12420183391372766,0.7241733928613362,0.31000444756783146,2.28
2017-05-05,0.69,1.85,2.98,0.71,0.9,1.1,1.32,1.89,2.17,2.36,2.99,0.12420495819659137,0.7241733928613362,0.31000444756783146,2.24
2017-05-12,0.71,1.79,2.9,0.69,0.88,1.11,1.29,1.85,2.13,2.33,2.98,0.12420611720475049,0.7241733928613362,0.31000444756783146,2.25
2017-05-19,0.75,1.79,2.92,0.71,0.92,1.1,1.28,1.79,2.05,2.23,2.9,0.12419719788109121,0.7241733928613362,0.31000444756783146,2.26
2017-05-26,0.83,1.74,2.84,0.75,0.94,1.17,1.3,1.79,2.06,2.25,2.92,0.12419830649759123,0.7241733928613362,0.31000444756783146,2.24
2017-06-05,0.82,1.78,2.86,0.83,0.96,1.16,1.32,1.74,1.99,2.18,2.84,0.12420012059731854,0.7241733928613362,0.31000444756783146,2.24
2017-06-12,0.85,1.8,2.79,0.82,0.98,1.19,1.35,1.78,2.02,2.21,2.86,0.12420450467165954,0.7241733928613362,0.31000444756783146,2.22
2017-06-19,0.81,1.77,2.7,0.85,1.02,1.22,1.36,1.8,2.02,2.19,2.79,0.12420893913765964,0.7241733928613362,0.31000444756783146,2.17
2017-06-26,0.84,1.89,2.84,0.81,0.99,1.2,1.36,1.77,1.97,2.14,2.7,0.12421332321200063,0.7241733928613362,0.31000444756783146,2.15
2017-07-01,0.95,1.93,2.93,0.84,1.03,1.24,1.38,1.89,2.14,2.31,2.84,0.12176133248373665,0.7252111395956512,0.31128333555611537,2.09
2017-07-10,0.95,1.86,2.89,0.95,1.04,1.23,1.4,1.93,2.2,2.38,2.93,0.1217638022415522,0.7252111395956512,0.31128333555611537,2.08
2017-07-17,1.0,1.83,2.83,0.95,1.07,1.22,1.36,1.86,2.12,2.31,2.89,0.12176503712045997,0.7252111395956512,0.31128333555611537,2.09
2017-07-24,1.0,1.84,2.89,1.0,1.17,1.23,1.37,1.83,2.07,2.26,2.83,0.12176622260421142,0.7252111395956512,0.31128333555611537,2.06
2017-07-31,0.99,1.81,2.84,1.0,1.07,1.23,1.34,1.84,2.11,2.3,2.89,0.1217674574831192,0.7252111395956512,0.31128333555611537,2.06
2017-08-07,0.95,1.77,2.81,0.99,1.02,1.22,1.36,1.81,2.07,2.26,2.84,0.12176869236202698,0.7252111395956512,0.31128333555611537,2.06
2017-08-14,0.95,1.76,2.77,0.95,1.02,1.23,1.33,1.77,2.04,2.22,2.81,0.12176997663609107,0.7252111395956512,0.31128333555611537,2.11
2017-08-21,0.99,1.74,2.76,0.95,1.0,1.23,1.32,1.76,2.0,2.18,2.77,0.12177126091015515,0.7252111395956512,0.31128333555611537,2.12
2017-08-28,1.3,1.65,2.69,0.99,0.98,1.24,1.33,1.74,1.99,2.16,2.76,0.12177254518421923,0.7252111395956512,0.31128333555611537,2.13
2017-09-05,0.99,1.75,2.78,1.3,1.03,1.23,1.3,1.65,1.9,2.07,2.69,0.12177387885343963,0.7252111395956512,0.31128333555611537,2.16
2017-09-12,0.97,1.84,2.81,0.99,1.03,1.27,1.33,1.75,1.99,2.17,2.78,0.12177333550672022,0.7252111395956512,0.31128333555611537,2.16
2017-09-19,0.96,1.87,2.78,0.97,1.04,1.31,1.4,1.84,2.07,2.24,2.81,0.12178217723969988,0.7252111395956512,0.31128333555611537,2.09
2017-09-26,0.95,1.94,2.87,0.96,1.06,1.31,1.45,1.87,2.08,2.24,2.78,0.12178118933657366,0.7252111395956512,0.31128333555611537,2.04
2017-10-02,1.03,1.95,2.88,0.95,1.01,1.31,1.49,1.94,2.17,2.34,2.87,0.12030729701586615,0.7233342606532935,0.3030974812698366,1.99
2017-10-10,0.99,1.97,2.8,1.03,1.08,1.42,1.51,1.95,2.18,2.35,2.88,0.12030924892597367,0.7233342606532935,0.3030974812698366,1.97
2017-10-17,1.0,2.05,2.92,0.99,1.09,1.41,1.54,1.97,2.15,2.3,2.8,0.1203134943304575,0.7233342606532935,0.3030974812698366,1.95
2017-10-24,0.99,2.01,2.88,1.0,1.12,1.43,1.6,2.05,2.26,2.42,2.92,0.12031773973494134,0.7233342606532935,0.3030974812698366,1.92
2017-10-31,1.05,1.99,2.77,0.99,1.15,1.43,1.6,2.01,2.23,2.38,2.88,0.1203219363416725,0.7233342606532935,0.3030974812698366,1.91
2017-11-07,1.06,2.06,2.84,1.05,1.22,1.49,1.63,1.99,2.17,2.32,2.77,0.12003402960081437,0.7233342606532935,0.3030974812698366,1.9
2017-11-14,1.15,2.11,2.76,1.06,1.26,1.55,1.68,2.06,2.26,2.38,2.84,0.12004173964573905,0.7233342606532935,0.3030974812698366,1.93
2017-11-21,1.17,2.09,2.81,1.15,1.3,1.62,1.77,2.11,2.27,2.36,2.76,0.11987855996075099,0.7233342606532935,0.3030974812698366,1.88
2017-11-29,1.18,2.11,2.71,1.17,1.29,1.61,1.78,2.09,2.27,2.37,2.81,0.11989407764610571,0.7233342606532935,0.3030974812698366,1.92
2017-12-06,1.22,2.12,2.74,1.18,1.3,1.68,1.78,2.11,2.25,2.33,2.71,0.1197728152306765,0.7233342606532935,0.3030974812698366,1.86
2017-12-13,1.22,2.24,2.88,1.22,1.3,1.68,1.79,2.12,2.26,2.36,2.74,0.11976217732059055,0.7233342606532935,0.3030974812698366,1.83
2017-12-20,1.19,2.23,2.75,1.22,1.38,1.72,1.87,2.24,2.4,2.49,2.88,0.11976125016328948,0.7233342606532935,0.3030974812698366,1.82
2017-12-28,1.28,2.27,2.79,1.19,1.39,1.76,1.91,2.23,2.36,2.43,2.75,0.1197603718037411,0.7233342606532935,0.3030974812698366,1.76
2018-01-04,1.32,2.32,2.91,1.28,1.41,1.82,1.96,2.27,2.38,2.46,2.79,0.11608579623656977,0.7319603276357025,0.29509271446652746,1.75
2018-01-11,1.28,2.45,2.91,1.32,1.43,1.77,1.98,2.32,2.46,2.54,2.91,0.1160858436532093,0.7319603276357025,0.29509271446652746,1.69
2018-01-19,1.24,2.47,2.91,1.28,1.44,1.79,2.06,2.45,2.57,2.64,2.91,0.11602894368577031,0.7319603276357025,0.29509271446652746,1.64
2018-01-26,1.4,2.58,3.08,1.24,1.41,1.8,2.13,2.47,2.6,2.66,2.91,0.11602894368577031,0.7319603276357025,0.29509271446652746,1.6
2018-02-02,1.31,2.52,3.14,1.4,1.48,1.88,2.15,2.58,2.76,2.84,3.08,0.11551693881209843,0.7319603276357025,0.29509271446652746,1.58
2018-02-09,1.35,2.63,3.13,1.31,1.55,1.89,2.05,2.52,2.72,2.83,3.14,0.11551603789594732,0.7319603276357025,0.29509271446652746,1.67
2018-02-16,1.39,2.6,3.15,1.35,1.62,2.0,2.21,2.63,2.81,2.87,3.13,0.11551513697979619,0.7319603276357025,0.29509271446652746,1.66
2018-02-26,1.53,2.65,3.16,1.39,1.66,2.03,2.22,2.6,2.77,2.86,3.15,0.11532039684123624,0.7319603276357025,0.29509271446652746,1.7
2018-03-05,1.6,2.64,3.13,1.53,1.7,2.06,2.24,2.65,2.81,2.88,3.16,0.114949409053534,0.7319603276357025,0.29509271446652746,1.72
2018-03-12,1.7,2.65,3.09,1.6,1.71,2.05,2.27,2.64,2.79,2.87,3.13,0.1149569957158592,0.7319603276357025,0.29509271446652746,1.79
2018-03-19,1.71,2.64,3.08,1.7,1.8,2.08,2.31,2.65,2.78,2.85,3.09,0.1149645823781844,0.7319603276357025,0.29509271446652746,1.8
2018-03-26,1.68,2.55,2.97,1.71,1.79,2.06,2.33,2.64,2.78,2.85,3.08,0.11497221645714913,0.7319603276357025,0.29509271446652746,1.84
2018-04-02,1.67,2.6,3.02,1.68,1.77,2.08,2.25,2.55,2.67,2.73,2.97,0.11440787881332781,0.7305259194708958,0.2937003746625984,1.86
2018-04-09,1.64,2.69,3.03,1.67,1.76,2.08,2.29,2.6,2.72,2.78,3.02,0.11384869217228347,0.7305259194708958,0.2937003746625984,1.83
2018-04-16,1.69,2.83,3.15,1.64,1.79,2.12,2.39,2.69,2.78,2.83,3.03,0.11385006041499274,0.7305259194708958,0.2937003746625984,1.77
2018-04-23,1.65,2.79,3.11,1.69,1.87,2.25,2.49,2.83,2.94,2.98,3.15,0.11385095684987122,0.7305259194708958,0.2937003746625984,1.76
2018-04-30,1.69,2.78,3.12,1.65,1.87,2.24,2.49,2.79,2.91,2.95,3.11,0.11385751497871911,0.7305259194708958,0.2937003746625984,1.79
2018-05-07,1.7,2.85,3.13,1.69,1.86,2.25,2.49,2.78,2.9,2.95,3.12,0.11301967863281415,0.7305259194708958,0.2937003746625984,1.87
2018-05-14,1.71,2.9,3.2,1.7,1.93,2.28,2.55,2.85,2.96,3.0,3.13,0.11302288692606346,0.7305259194708958,0.2937003746625984,1.81
2018-05-21,1.77,2.58,2.96,1.71,1.93,2.35,2.58,2.9,3.02,3.06,3.2,0.11261892506134681,0.7305259194708958,0.2937003746625984,1.83
2018-05-29,1.82,2.76,3.07,1.77,1.93,2.17,2.32,2.58,2.71,2.77,2.96,0.11262218053537922,0.7305259194708958,0.2937003746625984,1.96
2018-06-05,1.81,2.81,3.09,1.82,1.94,2.32,2.49,2.76,2.87,2.92,3.07,0.11262538882862855,0.7305259194708958,0.2937003746625984,1.9
2018-06-12,1.85,2.77,3.02,1.81,1.92,2.31,2.54,2.81,2.91,2.96,3.09,0.11218986302003249,0.7305259194708958,0.2937003746625984,1.88
2018-06-19,1.79,2.75,3.03,1.85,1.94,2.34,2.54,2.77,2.84,2.89,3.02,0.11219580779870036,0.7305259194708958,0.2937003746625984,1.91
2018-06-26,1.9,2.75,2.99,1.79,1.93,2.33,2.53,2.75,2.84,2.88,3.03,0.11220175257736822,0.7305259194708958,0.2937003746625984,1.99
2018-07-02,1.87,2.75,2.96,1.9,1.98,2.34,2.57,2.75,2.83,2.87,2.99,0.1105337232312722,0.7333502261427256,0.2893606254454231,1.97
2018-07-09,1.9,2.75,2.96,1.87,1.98,2.34,2.57,2.75,2.82,2.86,2.96,0.10970304132848127,0.7333502261427256,0.2893606254454231,1.93
2018-07-16,1.88,2.83,3.1,1.9,2.01,2.39,2.59,2.75,2.82,2.85,2.96,0.10970894389669335,0.7333502261427256,0.2893606254454231,1.91
2018-07-23,1.91,2.85,3.11,1.88,1.99,2.42,2.64,2.83,2.92,2.96,3.1,0.10967464393338222,0.7333502261427256,0.2893606254454231,1.91
2018-07-30,1.92,2.8,3.08,1.91,2.04,2.43,2.66,2.85,2.94,2.98,3.11,0.1096805465015943,0.7333502261427256,0.2893606254454231,1.84
2018-08-06,1.93,2.75,3.05,1.92,2.05,2.44,2.64,2.8,2.89,2.94,3.08,0.10861078734775673,0.7333502261427256,0.2893606254454231,1.82
2018-08-13,1.93,2.7,2.99,1.93,2.06,2.42,2.61,2.75,2.82,2.88,3.05,0.10861306471659446,0.7333502261427256,0.2893606254454231,1.91
2018-08-20,1.96,2.74,3.0,1.93,2.06,2.43,2.6,2.7,2.77,2.82,2.99,0.10803052306328603,0.7333502261427256,0.2893606254454231,1.89
2018-08-27,2.0,2.78,3.07,1.96,2.12,2.47,2.67,2.74,2.81,2.85,3.0,0.10803744812362934,0.7333502261427256,0.2893606254454231,1.89
2018-09-04,2.02,2.87,3.13,2.0,2.13,2.49,2.66,2.78,2.85,2.9,3.07,0.10803972549246707,0.7333502261427256,0.2893606254454231,1.94
2018-09-11,2.05,2.94,3.2,2.02,2.15,2.55,2.76,2.87,2.94,2.98,3.13,0.10751049286072756,0.7333502261427256,0.2893606254454231,1.9
2018-09-18,2.12,2.99,3.23,2.05,2.17,2.58,2.81,2.94,3.01,3.05,3.2,0.10751058581455766,0.7333502261427256,0.2893606254454231,1.88
2018-09-25,2.14,2.94,3.2,2.12,2.21,2.59,2.83,2.99,3.06,3.1,3.23,0.10751067876838778,0.7333502261427256,0.2893606254454231,1.83
2018-10-02,2.18,3.05,3.39,2.14,2.23,2.61,2.82,2.94,3.01,3.05,3.2,0.1052697685492955,0.7336248098670362,0.285340520947938,1.84
2018-10-10,2.2,3.04,3.35,2.18,2.27,2.67,2.88,3.05,3.15,3.22,3.39,0.10440597874879586,0.7336248098670362,0.285340520947938,1.86
2018-10-17,2.2,2.94,3.33,2.2,2.31,2.66,2.89,3.04,3.13,3.19,3.35,0.1044067978951216,0.7336248098670362,0.285340520947938,1.88
2018-10-24,2.2,2.98,3.39,2.2,2.34,2.64,2.84,2.94,3.02,3.1,3.33,0.10440543265124536,0.7336248098670362,0.285340520947938,1.99
2018-10-31,2.23,3.07,3.43,2.2,2.34,2.69,2.87,2.98,3.07,3.15,3.39,0.10332161104602437,0.7336248098670362,0.285340520947938,2.03
2018-11-07,2.2,2.94,3.36,2.23,2.37,2.74,2.96,3.07,3.15,3.22,3.43,0.10332329484680508,0.7336248098670362,0.285340520947938,1.96
2018-11-15,2.25,2.88,3.31,2.2,2.37,2.7,2.86,2.94,3.02,3.11,3.36,0.10332256671673774,0.7336248098670362,0.285340520947938,2.13
2018-11-23,2.31,2.84,3.3,2.25,2.41,2.67,2.81,2.88,2.97,3.05,3.31,0.10253368329691469,0.7336248098670362,0.285340520947938,2.18
2018-11-30,2.32,2.7,3.14,2.31,2.37,2.7,2.8,2.84,2.92,3.01,3.3,0.10253513955704935,0.7336248098670362,0.285340520947938,2.27
2018-12-07,2.36,2.73,3.14,2.32,2.4,2.68,2.72,2.7,2.77,2.85,3.14,0.10196328440541991,0.7336248098670362,0.285340520947938,2.31
2018-12-14,2.41,2.64,3.03,2.36,2.42,2.68,2.73,2.73,2.81,2.89,3.14,0.10196578735252636,0.7336248098670362,0.285340520947938,2.25
2018-12-21,2.44,2.51,3.02,2.41,2.39,2.62,2.63,2.64,2.72,2.79,3.03,0.10196829029963281,0.7336248098670362,0.285340520947938,2.31
2018-12-31,2.42,2.53,2.99,2.44,2.45,2.63,2.48,2.51,2.59,2.69,3.02,0.10197083875486845,0.7336248098670362,0.285340520947938,2.45
2019-01-07,2.42,2.53,3.06,2.42,2.45,2.58,2.53,2.53,2.6,2.7,2.99,0.1008956377100293,0.7365144081046383,0.29390027546908737,2.42
2019-01-14,2.38,2.57,3.06,2.42,2.45,2.57,2.53,2.53,2.6,2.71,3.06,0.10089087102344847,0.7365144081046383,0.29390027546908737,2.46
2019-01-22,2.39,2.55,3.04,2.38,2.43,2.59,2.58,2.57,2.65,2.74,3.06,0.10079131536943182,0.7365144081046383,0.29390027546908737,2.38
2019-01-29,2.39,2.51,3.03,2.39,2.42,2.6,2.56,2.55,2.61,2.72,3.04,0.10078659407986607,0.7365144081046383,0.29390027546908737,2.36
2019-02-05,2.42,2.49,3.02,2.39,2.42,2.56,2.53,2.51,2.6,2.71,3.03,0.10078191818731534,0.7365144081046383,0.29390027546908737,2.27
2019-02-12,2.41,2.47,3.0,2.42,2.43,2.55,2.5,2.49,2.58,2.68,3.02,0.10013278626903724,0.7365144081046383,0.29390027546908737,2.3
2019-02-20,2.43,2.49,3.07,2.41,2.45,2.54,2.5,2.47,2.55,2.65,3.0,0.09906541165105312,0.7365144081046383,0.29390027546908737,2.23
2019-02-27,2.43,2.49,3.06,2.43,2.45,2.54,2.5,2.49,2.59,2.69,3.07,0.09906046337641207,0.7365144081046383,0.29390027546908737,2.25
2019-03-06,2.43,2.42,3.02,2.43,2.47,2.54,2.52,2.49,2.59,2.69,3.06,0.098757574491962,0.7365144081046383,0.29390027546908737,2.25
2019-03-13,2.45,2.34,2.98,2.43,2.45,2.53,2.45,2.42,2.51,2.61,3.02,0.09876025291585028,0.7365144081046383,0.29390027546908737,2.26
2019-03-20,2.45,2.18,2.83,2.45,2.48,2.47,2.4,2.34,2.44,2.54,2.98,0.09876288594272349,0.7365144081046383,0.29390027546908737,2.29
2019-03-27,2.42,2.32,2.93,2.45,2.44,2.4,2.22,2.18,2.28,2.39,2.83,0.09876556436661177,0.7365144081046383,0.29390027546908737,2.28
2019-04-03,2.4,2.28,2.9,2.42,2.44,2.41,2.33,2.32,2.42,2.52,2.93,0.09777416019219297,0.7357994264524503,0.30085886831677183,2.23
2019-04-10,2.43,2.4,2.99,2.4,2.43,2.41,2.31,2.28,2.37,2.48,2.9,0.0977802900684698,0.7357994264524503,0.30085886831677183,2.21
2019-04-17,2.43,2.33,2.94,2.43,2.44,2.44,2.4,2.4,2.49,2.59,2.99,0.09777874624777787,0.7357994264524503,0.30085886831677183,2.13
2019-04-25,2.44,2.34,2.94,2.43,2.43,2.42,2.33,2.33,2.42,2.54,2.94,0.0977848761240547,0.7357994264524503,0.30085886831677183,2.14
2019-05-02,2.43,2.25,2.87,2.44,2.47,2.41,2.35,2.34,2.44,2.55,2.94,0.09644129805715161,0.7357994264524503,0.30085886831677183,2.12
2019-05-09,2.4,2.18,2.84,2.43,2.43,2.36,2.26,2.25,2.34,2.45,2.87,0.09644924419306604,0.7357994264524503,0.30085886831677183,2.21
2019-05-16,2.38,2.11,2.75,2.4,2.4,2.33,2.2,2.18,2.28,2.4,2.84,0.0960094823283159,0.7357994264524503,0.30085886831677183,2.24
2019-05-23,2.35,1.93,2.58,2.38,2.37,2.32,2.12,2.11,2.2,2.31,2.75,0.09601515813968335,0.7357994264524503,0.30085886831677183,2.28
2019-05-31,2.3,1.85,2.57,2.35,2.35,2.21,1.95,1.93,2.03,2.14,2.58,0.09602310427559778,0.7357994264524503,0.30085886831677183,2.37
2019-06-07,2.23,1.85,2.59,2.3,2.28,1.97,1.85,1.85,1.97,2.09,2.57,0.09579793348702825,0.7357994264524503,0.30085886831677183,2.42
2019-06-14,2.16,1.8,2.59,2.23,2.2,2.0,1.84,1.85,1.96,2.09,2.59,0.09580574340346987,0.7357994264524503,0.30085886831677183,2.42
2019-06-21,2.18,1.76,2.52,2.16,2.11,1.95,1.77,1.8,1.93,2.07,2.59,0.0958115100278192,0.7357994264524503,0.30085886831677183,2.35
2019-06-28,2.23,1.86,2.53,2.18,2.12,1.92,1.75,1.76,1.87,2.0,2.52,0.09581931994426081,0.7357994264524503,0.30085886831677183,2.31
2019-07-08,2.17,1.84,2.61,2.23,2.26,1.99,1.88,1.86,1.94,2.05,2.53,0.09222923208982349,0.7405995104976795,0.3047395349578303,2.23
2019-07-15,2.13,1.8,2.58,2.17,2.16,1.95,1.83,1.84,1.96,2.09,2.61,0.09223165292818887,0.7405995104976795,0.3047395349578303,2.25
2019-07-22,2.12,1.84,2.59,2.13,2.09,1.95,1.8,1.8,1.92,2.05,2.58,0.09216721461242686,0.7405995104976795,0.3047395349578303,2.24
2019-07-29,2.07,1.55,2.3,2.12,2.12,1.98,1.85,1.84,1.93,2.06,2.59,0.09217016363370832,0.7405995104976795,0.3047395349578303,2.13
2019-08-05,2.09,1.49,2.14,2.07,2.05,1.78,1.59,1.55,1.63,1.75,2.3,0.09158251612432405,0.7405995104976795,0.3047395349578303,2.24
2019-08-12,2.06,1.47,2.08,2.09,2.0,1.75,1.58,1.49,1.56,1.65,2.14,0.09158269218529608,0.7405995104976795,0.3047395349578303,2.23
2019-08-19,2.09,1.43,2.04,2.06,1.94,1.75,1.53,1.47,1.54,1.6,2.08,0.09158295627675411,0.7405995104976795,0.3047395349578303,2.29
2019-08-26,2.06,1.35,1.95,2.09,2.01,1.75,1.54,1.43,1.49,1.54,2.04,0.09194432142184024,0.7405995104976795,0.3047395349578303,2.27
2019-09-03,2.04,1.58,2.19,2.06,1.98,1.72,1.47,1.35,1.42,1.47,1.95,0.09221765608091269,0.7405995104976795,0.3047395349578303,2.28
2019-09-10,2.1,1.66,2.27,2.04,1.95,1.81,1.67,1.58,1.66,1.72,2.19,0.09221915259917493,0.7405995104976795,0.3047395349578303,2.22
2019-09-17,1.9,1.52,2.09,2.1,1.99,1.87,1.72,1.66,1.75,1.81,2.27,0.09248346413343098,0.7405995104976795,0.3047395349578303,2.21
2019-09-24,1.79,1.51,2.11,1.9,1.92,1.78,1.6,1.52,1.58,1.64,2.09,0.09268844312011382,0.7405995104976795,0.3047395349578303,2.2
2019-10-01,1.69,1.36,2.04,1.79,1.82,1.73,1.56,1.51,1.59,1.65,2.11,0.09084300158007842,0.740791797729273,0.29499107380681666,2.22
2019-10-08,1.71,1.57,2.23,1.69,1.72,1.62,1.42,1.36,1.45,1.54,2.04,0.09125017563610441,0.740791797729273,0.29499107380681666,2.3
2019-10-16,1.74,1.58,2.25,1.71,1.66,1.59,1.58,1.57,1.65,1.75,2.23,0.09150684140339928,0.740791797729273,0.29499107380681666,2.22
2019-10-23,1.61,1.61,2.26,1.74,1.65,1.58,1.58,1.58,1.67,1.77,2.25,0.09263190379192962,0.740791797729273,0.29499107380681666,2.18
2019-10-30,1.55,1.63,2.3,1.61,1.62,1.59,1.61,1.61,1.69,1.78,2.26,0.09376558635736322,0.740791797729273,0.29499107380681666,2.17
2019-11-06,1.59,1.63,2.31,1.55,1.56,1.58,1.61,1.63,1.73,1.81,2.3,0.09457704671015259,0.740791797729273,0.29499107380681666,2.14
2019-11-14,1.57,1.62,2.24,1.59,1.57,1.55,1.58,1.63,1.73,1.82,2.31,0.0948878471884,0.740791797729273,0.29499107380681666,2.13
2019-11-21,1.62,1.62,2.21,1.57,1.58,1.55,1.6,1.62,1.71,1.77,2.24,0.09569952304561194,0.740791797729273,0.29499107380681666,2.15
2019-11-29,1.52,1.67,2.29,1.62,1.59,1.6,1.61,1.62,1.73,1.78,2.21,0.09691225263324854,0.740791797729273,0.29499107380681666,2.08
2019-12-06,1.55,1.66,2.26,1.52,1.53,1.57,1.61,1.67,1.78,1.84,2.29,0.09740166317693172,0.740791797729273,0.29499107380681666,2.07
2019-12-13,1.57,1.73,2.34,1.55,1.57,1.54,1.61,1.66,1.76,1.82,2.26,0.09836466623968057,0.740791797729273,0.29499107380681666,2.02
2019-12-20,1.56,1.68,2.32,1.57,1.58,1.52,1.63,1.73,1.84,1.92,2.34,0.09916125678731179,0.740791797729273,0.29499107380681666,1.96
